{
    "name": "yiisoft/yii2-app-advanced",
    "description": "Yii 2 Advanced Project Template",
    "keywords": [
        "yii2",
        "framework",
        "advanced",
        "project template"
    ],
    "homepage": "http://www.yiiframework.com/",
    "type": "project",
    "license": "BSD-3-Clause",
    "support": {
        "issues": "https://github.com/yiisoft/yii2/issues?state=open",
        "forum": "http://www.yiiframework.com/forum/",
        "wiki": "http://www.yiiframework.com/wiki/",
        "irc": "irc://irc.freenode.net/yii",
        "source": "https://github.com/yiisoft/yii2"
    },
    "minimum-stability": "stable",
    "require": {
        "php": ">=7.1.0",
        "yiisoft/yii2": "~2.0.14",
        "yiisoft/yii2-bootstrap": "~2.0.0",
        "yiisoft/yii2-swiftmailer": "~2.0.0 || ~2.1.0",
        "qiniu/php-sdk": "^7.1",
        "yiisoft/yii2-redis": "^2.0",
        "yiisoft/yii2-imagine": "^2.1",
        "kriss/yii2-log-reader": "2.*",
        "aliyuncs/oss-sdk-php": "^2.3",
        "fluent/logger": "^1.0",
        "aws/aws-sdk-php": "^3.171",
        "symfony/polyfill-mbstring": "^1.20",
        "mtdowling/jmespath.php": "^2.6",
        "guzzlehttp/guzzle": "6.*",
        "zohocrm/php-sdk": "^3.0"
    },
    "require-dev": {
        "yiisoft/yii2-debug": "~2.1.0",
        "yiisoft/yii2-gii": "~2.1.0",
        "yiisoft/yii2-faker": "~2.0.0",
        "codeception/base": "^2.4.0",
        "phpunit/phpunit": "~6.5.5",
        "codeception/verify": "~1.0.0",
        "symfony/browser-kit": ">=2.7 <=4.2.4"
    },
    "config": {
        "process-timeout": 1800,
        "fxp-asset": {
            "enabled": false
        }
    },
    "repositories": {
        "packagist": {
            "type": "composer",
            "url": "https://packagist.phpcomposer.com"
        }
    }
}
